{
  "//": "Positions taken from 2021 muon invisible mode survey",
    "//": "All positions are given in mm.",
    "//": "",
    "//": "",
    "//": "",
    "//": "Trackers positions along the beam axis",
    "//": "Micromegas trackers",
    "MM01":{
      "origin": [-7.75,-814.9,-70829.3],
      "dimension": [81,81,0.25],
      "resolution": 0.08
    },
    "MM02":{
      "origin": [-9.05,-807.0,-69998.0],
      "dimension": [81,81,0.25],
      "resolution": 0.08
    },
    "MM03":{
      "origin": [-15.0,3.8,-17686.4],
      "dimension": [81,81,0.25],
      "resolution": 0.08
    },
    "MM04":{
      "origin": [-15.0,34.8,-16871.1],
      "dimension": [81,81,0.25],
      "resolution": 0.08
    },
    "MM05":{
      "origin": [50.45, -6.05, 11260],
      "dimension": [81,81,0.25],
      "resolution": 0.08
    },
    "MM06":{
      "origin": [42.0, 10.07, 11611.5],
      "dimension": [81,81,0.25],
      "resolution": 0.08
    },
    "MM07":{
      "origin": [10.3, 10.98, 11994],
      "dimension": [81,81,0.25],
      "resolution": 0.08
    },
    "//": "GEM trackers",
    "GM04":{
      "origin": [13.16, 15.85, 3904.9],
      "dimension": [150,150,0.25],
      "resolution": 0.06
    },
    "GM02":{
      "origin": [-3.698, 2.397, 4324.9],
      "dimension": [150,150,0.25],
      "resolution": 0.06
    },
    "GM03":{
      "origin": [-6.665, -23.49, 6008.4],
      "dimension": [150,150,0.25],
      "resolution": 0.06
    },
    "GM01":{
      "origin": [-2.762, -20.87, 7592.8],
      "dimension": [150,150,0.25],
      "resolution": 0.06
    },
    "//": "Bending magnets",
    "BEND": {  
      "BEND_6_name":   "MBNV.65",
      "BEND_6U_pos": [0.0,0.0,-51331.6],
      "BEND_6D_pos": [0.0,0.0,-36023.6],
      "BEND_6_gap": [166.0,636.0,5001.0],
      "BEND_6_field":   1.06,
      "BEND_6_dir":   [1.0,0.0,0.0]
    },
    "//": "MBPL magnet",
    "MBPL": {  
      "MBPL04_name":  "MBPL-4",
      "MBPL04U_pos":  [0.0, 0.0, 8671.4],
      "MBPL04D_pos":  [0.0, 0.0, 10517.1],
      "MBPL04_gap":   [1150.0,220.0,2000.0],
      "MBPL04_field":   1.40,
      "MBPL04_dir":   [0.0,1.0,0.0]
    }
}
