{
  "BMS01": {
    "origin": [3.761411, -1153.292734, -38466.065822], 
    "direction": [0.000897, 0.019608, 0.999807], 
    "rotation": [-0.612943, 0.014877, -1.150324], 
    "rotation_sim": [-0.613118, 0.002568, -1.150418], 
    "resolution": 1, 
    "dimension": [1200, 400, 350]
  }, 
  "BMS05": {
    "origin": [11.300519, -937.462979, -31675.137408], 
    "direction": [-0.002513, 0.027479, 0.999619], 
    "rotation": [-0.04619, -0.072374, -1.583991], 
    "rotation_sim": [-0.044172, -0.073624, -1.583934], 
    "resolution": 1, 
    "dimension": [1600, 400, 200]
  }, 
  "BMS02": {
    "origin": [-9.649643, -747.739687, -25052.657371], 
    "direction": [0.005205, 0.008221, 0.999953], 
    "rotation": [0.189367, 0.321538, -0.488317], 
    "rotation_sim": [0.186622, 0.323138, -0.48726], 
    "resolution": 1, 
    "dimension": [1200, 400, 350]
  }, 
  "BMS03": {
    "origin": [3.871332, -2.054553, 25003.163458], 
    "direction": [0.009029, -0.004417, 0.999949], 
    "rotation": [0.385403, 0.371907, 0.278856], 
    "rotation_sim": [0.387216, 0.370018, 0.281357], 
    "resolution": 1, 
    "dimension": [1200, 400, 350]
  }, 
  "BMS06": {
    "origin": [39.601853, -0.148946, 27914.020642], 
    "direction": [0.000628, 0.029987, 0.99955], 
    "rotation": [-0.999808, 0.096374, -1.723394], 
    "rotation_sim": [-1.002255, 0.066248, -1.724815], 
    "resolution": 1, 
    "dimension": [1600, 400, 200]
  }, 
  "MM01": {
    "origin": [-1.969217, -826.348317, -27475.397495], 
    "direction": [0.017948, -0.003446, 0.999833], 
    "rotation": [-0.003544, 1.028388, 0.197447], 
    "rotation_sim": [0.0, 0.017949, 0.003446], 
    "resolution": 0.08, 
    "dimension": [81, 81, 14.0]
  }, 
  "MM02": {
    "origin": [-4.933703, -795.918793, -26500.79323], 
    "direction": [-0.011086, 0.02792, 0.999549], 
    "rotation": [-0.017743, -0.63522, -1.599978], 
    "rotation_sim": [0.0, -0.011091, -0.027923], 
    "resolution": 0.08, 
    "dimension": [81, 81, 14.0]
  }, 
  "MM03": {
    "origin": [5.305094, -0.901719, 25460.314838], 
    "direction": [0.01966, -0.039885, 0.999011], 
    "rotation": [-0.044974, 1.126529, 2.286315], 
    "rotation_sim": [0.0, 0.019677, 0.039896], 
    "resolution": 0.08, 
    "dimension": [81, 81, 14.0]
  }, 
  "MM04": {
    "origin": [5.928936, -4.413587, 26614.600277], 
    "direction": [-0.001929, -0.005761, 0.999982], 
    "rotation": [0.000637, -0.110526, 0.330078], 
    "rotation_sim": [0.0, -0.001929, 0.005761], 
    "resolution": 0.08, 
    "dimension": [81, 81, 14.0]
  }, 
  "MM08": {
    "origin": [-5.4165390548526915, 7.852472914757856, 46728.50099198625], 
    "direction": [-0.011475, 0.000759, 0.999934], 
    "rotation": [-0.000499, -0.657506, -0.043477], 
    "rotation_sim": [0.0, -0.011476, -0.000759], 
    "resolution": 0.06, 
    "dimension": [81, 81, 14.0]
  }, 
  "MM09": {
    "origin": [8.780458478013959, -3.1712747153014944, 47539.205004013806], 
    "direction": [-0.005531, -0.025229, 0.999666], 
    "rotation": [0.007997, -0.31688, 1.445692], 
    "rotation_sim": [0.0, -0.005532, 0.025232], 
    "resolution": 0.06, 
    "dimension": [81, 81, 14.0]
  }, 
  "MM10": {
    "origin": [16.593825131918305, -7.725084194201287, 50896.8028308164], 
    "direction": [-0.013499, -0.013971, 0.999811], 
    "rotation": [0.010808, -0.773433, 0.800593], 
    "rotation_sim": [0.0, -0.0135, 0.013972], 
    "resolution": 0.08, 
    "dimension": [81, 81, 14.0]
  }, 
  "MM11": {
    "origin": [19.476328429785543, -2.0676578567521022, 52150.65089364781], 
    "direction": [0.008229, -0.00698, 0.999942], 
    "rotation": [-0.003291, 0.471471, 0.399949], 
    "rotation_sim": [0.0, 0.008229, 0.00698], 
    "resolution": 0.05, 
    "dimension": [81, 81, 14.0]
  }, 
  "MM05": {
    "origin": [163.18325638, -1.5939173899999999, 59221.92525509455], 
    "direction": [-0.00705, -0.003617, 0.999969], 
    "rotation": [-0.276999, -0.403952, 0.207268], 
    "rotation_sim": [-0.278466, -0.402943, 0.209224], 
    "resolution": 0.06, 
    "dimension": [240, 81, 0.25]
  }, 
  "MM06": {
    "origin": [179.11083849000002, 7.526187990000001, 59625.32511867867], 
    "direction": [-0.004842, -0.002401, 0.999985], 
    "rotation": [-0.233294, -0.277455, 0.137552], 
    "rotation_sim": [-0.233962, -0.276892, 0.138682], 
    "resolution": 0.05, 
    "dimension": [240, 81, 0.25]
  }, 
  "MM07": {
    "origin": [173.47511599000003, -0.94573085, 59931.325244298285], 
    "direction": [0.002721, -0.007262, 0.99997], 
    "rotation": [0.685927, 0.155906, 0.41606], 
    "rotation_sim": [0.687043, 0.15091, 0.417898], 
    "resolution": 0.07, 
    "dimension": [240, 81, 0.25]
  }, 
  "GM01": {
    "origin": [9.683917046862181, 23.967826929999998, 53653.17471651102], 
    "direction": [-0.001091, -0.004844, 0.999988], 
    "rotation": [-0.169453, -0.062536, 0.277515], 
    "rotation_sim": [-0.169754, -0.061715, 0.277699], 
    "resolution": 0.04, 
    "dimension": [150, 150, 30.0]
  }, 
  "GM02": {
    "origin": [27.851321349119683, 29.55876738, 54004.29642653527], 
    "direction": [-0.003821, 0.017208, 0.999845], 
    "rotation": [0.167905, -0.218953, -0.98599], 
    "rotation_sim": [0.171649, -0.21603, -0.986635], 
    "resolution": 0.04, 
    "dimension": [150, 150, 30.0]
  }, 
  "GM03": {
    "origin": [13.088300908488847, 14.323233559999998, 55462.30362852066], 
    "direction": [-0.00096, -0.017736, 0.999842], 
    "rotation": [0.385326, -0.055013, 1.01627], 
    "rotation_sim": [0.38429, -0.061837, 1.015877], 
    "resolution": 0.05, 
    "dimension": [150, 150, 30.0]
  }, 
  "GM04": {
    "origin": [30.067926570225133, 15.73687351, 56068.1013614346], 
    "direction": [-0.010191, 0.003813, 0.999941], 
    "rotation": [-0.278274, -0.583884, -0.218454], 
    "rotation_sim": [-0.276061, -0.584934, -0.215626], 
    "resolution": 0.05, 
    "dimension": [150, 150, 30.0]
  }, 
  "ST05X": {
    "origin": [-3.889528, -865.344492, -28557.077213], 
    "direction": [0.009012, 0.035763, 0.99932], 
    "rotation": [-0.889359, 0.516344, -2.049572], 
    "rotation_sim": [-0.907288, 0.484145, -2.057413], 
    "resolution": 0.6, 
    "dimension": [192, 192, 40]
  }, 
  "ST05Y": {
    "origin": [-4.175277, -864.131759, -28508.674999], 
    "direction": [0.007507, 0.034544, 0.999375], 
    "rotation": [-0.518808, 0.430119, -1.979673], 
    "rotation_sim": [-0.53337, 0.411922, -1.983538], 
    "resolution": 0.6, 
    "dimension": [192, 192, 40]
  }, 
  "ST05": {
    "origin": [-4.032402, -864.738126, -28532.876106], 
    "direction": [0.00826, 0.035154, 0.999348], 
    "rotation": [-0.704084, 0.473232, -2.014622], 
    "rotation_sim": [-0.720329, 0.448034, -2.020475], 
    "resolution": 0.6, 
    "dimension": [192.0, 192.0, 40.0]
  }, 
  "ST06X": {
    "origin": [3.217854, -856.30934, -28097.048737], 
    "direction": [0.007946, 0.033516, 0.999407], 
    "rotation": [-0.454148, 0.455297, -1.920774], 
    "rotation_sim": [-0.469167, 0.439804, -1.924379], 
    "resolution": 0.6, 
    "dimension": [192, 192, 40]
  }, 
  "ST06Y": {
    "origin": [4.239423, -854.286411, -28047.227157], 
    "direction": [0.012139, 0.031535, 0.999429], 
    "rotation": [-0.553318, 0.695556, -1.807271], 
    "rotation_sim": [-0.575019, 0.677726, -1.81403], 
    "resolution": 0.6, 
    "dimension": [192, 192, 40]
  }, 
  "ST06": {
    "origin": [3.728638, -855.297876, -28072.137947], 
    "direction": [0.010042, 0.032526, 0.999418], 
    "rotation": [-0.503733, 0.575426, -1.864022], 
    "rotation_sim": [-0.522093, 0.558765, -1.869204], 
    "resolution": 0.6, 
    "dimension": [192.0, 192.0, 40.0]
  }, 
  "ST04X": {
    "origin": [-1.206311, 12.287624, 25796.524303], 
    "direction": [0.003592, -0.004684, 0.999983], 
    "rotation": [-0.014327, 0.205819, 0.2684], 
    "rotation_sim": [-0.013363, 0.205884, 0.26835], 
    "resolution": 0.6, 
    "dimension": [192, 192, 40]
  }, 
  "ST04Y": {
    "origin": [-0.91171, 12.494302, 25845.100696], 
    "direction": [0.004668, -0.003608, 0.999983], 
    "rotation": [-0.124733, 0.267443, 0.2067], 
    "rotation_sim": [-0.123769, 0.267891, 0.20612], 
    "resolution": 0.6, 
    "dimension": [192, 192, 40]
  }, 
  "ST04": {
    "origin": [-1.05901, 12.390963, 25820.8125], 
    "direction": [0.00413, -0.004146, 0.999983], 
    "rotation": [-0.06953, 0.236631, 0.23755], 
    "rotation_sim": [-0.068566, 0.236888, 0.237235], 
    "resolution": 0.6, 
    "dimension": [192.0, 192.0, 40.0]
  }, 
  "ST03X": {
    "origin": [-11.606808, -3.069699, 47190.06515], 
    "direction": [0.019205, -0.011117, 0.999754], 
    "rotation": [-0.62826, 1.100422, 0.637116], 
    "rotation_sim": [-0.616101, 1.107275, 0.625129], 
    "resolution": 0.6, 
    "dimension": [192, 192, 40]
  }, 
  "ST03Y": {
    "origin": [-9.662717, -2.923027, 47241.358716], 
    "direction": [0.019693, -0.006924, 0.999782], 
    "rotation": [-0.592352, 1.128394, 0.396814], 
    "rotation_sim": [-0.584637, 1.13241, 0.385203], 
    "resolution": 0.6, 
    "dimension": [192, 192, 40]
  }, 
  "ST03": {
    "origin": [-10.224161, -3.2024695000000003, 47215.711933], 
    "direction": [0.019449, -0.00902, 0.999768], 
    "rotation": [-0.610306, 1.114408, 0.516965], 
    "rotation_sim": [-0.600369, 1.119842, 0.505166], 
    "resolution": 0.4, 
    "dimension": [192.0, 192.0, 40.0]
  }, 
  "ST02X": {
    "origin": [40.607247, 3.109637, 50501.90669], 
    "direction": [0.023931, -0.018509, 0.999542], 
    "rotation": [0.504618, 1.371286, 1.060856], 
    "rotation_sim": [0.530068, 1.361653, 1.073194], 
    "resolution": 0.6, 
    "dimension": [192, 192, 40]
  }, 
  "ST02Y": {
    "origin": [42.143465, 3.808067, 50553.216219], 
    "direction": [0.025163, -0.013327, 0.999595], 
    "rotation": [0.558479, 1.441908, 0.763827], 
    "rotation_sim": [0.57783, 1.434264, 0.778087], 
    "resolution": 0.6, 
    "dimension": [192, 192, 40]
  }, 
  "ST02": {
    "origin": [41.519515, 3.4309013999999998, 50527.561454], 
    "direction": [0.024547, -0.015918, 0.999569], 
    "rotation": [0.531548, 1.406597, 0.912342], 
    "rotation_sim": [0.553949, 1.397958, 0.92564], 
    "resolution": 0.35, 
    "dimension": [192.0, 192.0, 40.0]
  }, 
  "ST01X": {
    "origin": [24.521649, 7.082278, 52509.693984], 
    "direction": [0.013041, 0.011432, 0.99985], 
    "rotation": [0.059908, 0.747228, -0.655073], 
    "rotation_sim": [0.051365, 0.747864, -0.654347], 
    "resolution": 0.6, 
    "dimension": [192, 192, 40]
  }, 
  "ST01Y": {
    "origin": [24.927486, 7.626114, 52558.68601], 
    "direction": [0.018063, 0.014972, 0.999725], 
    "rotation": [-0.47543, 1.034982, -0.858013], 
    "rotation_sim": [-0.490953, 1.02771, -0.866711], 
    "resolution": 0.6, 
    "dimension": [192, 192, 40]
  }, 
  "ST01": {
    "origin": [24.500616, 7.840502, 52534.189997], 
    "direction": [0.015552, 0.013202, 0.999788], 
    "rotation": [-0.207761, 0.891105, -0.756543], 
    "rotation_sim": [-0.219794, 0.887787, -0.760529], 
    "resolution": 0.4, 
    "dimension": [192.0, 192.0, 40.0]
  }, 
  "ST11V": {
    "origin": [338.948307, -24.524153, 60157.27378], 
    "direction": [-0.00839, -0.003305, 0.999959], 
    "rotation": [7.022284, -0.480704, 0.189375], 
    "rotation_sim": [7.020925, -0.500249, 0.129191], 
    "resolution": 0.6, 
    "dimension": [1200, 600, 20]
  }, 
  "ST11U": {
    "origin": [338.512861, -24.74081, 60271.85135], 
    "direction": [-0.008762, -0.00364, 0.999955], 
    "rotation": [-7.03615, -0.502035, 0.208547], 
    "rotation_sim": [-7.038171, -0.472704, 0.268482], 
    "resolution": 0.6, 
    "dimension": [1200, 600, 20]
  }, 
  "ST11": {
    "origin": [336.53849098, -20.494041, 60214.562565], 
    "direction": [-0.008576, -0.003472, 0.999957], 
    "rotation": [-0.006933, -0.49137, 0.198961], 
    "rotation_sim": [-0.008623, -0.486477, 0.198836], 
    "resolution": 0.8, 
    "dimension": [1200.0, 600.0, 20.0]
  }, 
  "ST12V": {
    "origin": [213.266278, -43.238467, 65307.574708], 
    "direction": [0.003876, -0.002116, 0.99999], 
    "rotation": [7.044104, 0.222074, 0.121215], 
    "rotation_sim": [7.044603, 0.205532, 0.147534], 
    "resolution": 0.6, 
    "dimension": [1200, 600, 20]
  }, 
  "ST12U": {
    "origin": [214.239688, -43.452229, 65421.675318], 
    "direction": [0.00451, 0.000908, 0.999989], 
    "rotation": [-7.026871, 0.258427, -0.052004], 
    "rotation_sim": [-7.027169, 0.250124, -0.083228], 
    "resolution": 0.6, 
    "dimension": [1200, 600, 20]
  }, 
  "ST12": {
    "origin": [213.752983, -43.345348, 65364.625013], 
    "direction": [0.004193, -0.000604, 0.99999], 
    "rotation": [0.008617, 0.24025, 0.034606], 
    "rotation_sim": [0.008717, 0.227828, 0.032153], 
    "resolution": 2, 
    "dimension": [1200.0, 600.0, 20.0]
  }, 
  "QPL_27": {
    "name": "BEAM_M2.QPL.61990", 
    "origin": [-5.5, -1281.2, -42698.85], 
    "direction": [0.0002, 0.03, 0.99955], 
    "rotation": [0.0, 0.011453, -1.719131], 
    "rotation_sim": [-0.000344, 0.011448, -1.719131], 
    "dimension": [815, 815, 2000]
  }, 
  "QPL_28": {
    "name": "BEAM_M2.QPL.61992", 
    "origin": [-3.95, -1206.45, -40199.95], 
    "direction": [-5e-05, 0.03005, 0.999548], 
    "rotation": [0.0, -0.002863, -1.721995], 
    "rotation_sim": [8.6e-05, -0.002862, -1.721995], 
    "dimension": [815, 815, 2000]
  }, 
  "SCR_1": {
    "name": "BEAM_XCMV.061.997", 
    "origin": [-4.2, -1056.25, -35200.35], 
    "direction": [0.00012, 0.03002, 0.999549], 
    "rotation": [0.0, 0.006874, -1.720294], 
    "rotation_sim": [-0.000206, 0.006871, -1.720294], 
    "dimension": [960, 760, 5000]
  }, 
  "QPL_29": {
    "name": "BEAM_M2.QWL.65011", 
    "origin": [-1.75, -676.95, -22566.35], 
    "direction": [0.000237, 0.029884, 0.999553], 
    "rotation": [0.0, 0.0136, -1.712511], 
    "rotation_sim": [-0.000406, 0.013594, -1.712511], 
    "dimension": [610, 1030, 2948]
  }, 
  "QPL_30": {
    "name": "BEAM_M2.QWL.65023", 
    "origin": [-2.0, -306.4, -10173.55], 
    "direction": [0.000136, 0.029579, 0.999562], 
    "rotation": [-0.0, 0.007772, -1.695026], 
    "rotation_sim": [-0.00023, 0.007768, -1.695026], 
    "dimension": [610, 1030, 2948]
  }, 
  "BEND_6": {
    "name": "BEAM_M2.MBNV.65027", 
    "origin": [0.05, -182.55, -5664.7], 
    "direction": [-2e-05, 0.02498, 0.999688], 
    "rotation": [0.0, -0.001146, -1.431409], 
    "rotation_sim": [2.9e-05, -0.001145, -1.431409], 
    "dimension": [598, 1108, 5000]
  }, 
  "BEND_6A": {
    "name": "BEAM_M2.MBNV.65033", 
    "origin": [0.0, -69.1, -9.55], 
    "direction": [-0.00012, 0.015, 0.999887], 
    "rotation": [0.0, -0.006874, -0.859458], 
    "rotation_sim": [0.000103, -0.006873, -0.859458], 
    "dimension": [598, 1108, 5000]
  }, 
  "BEND_6B": {
    "name": "BEAM_M2.MBNV.65039", 
    "origin": [0.35, -12.45, 5644.6], 
    "direction": [-0.00026, 0.00506, 0.999987], 
    "rotation": [0.0, -0.014894, -0.289914], 
    "rotation_sim": [7.5e-05, -0.014894, -0.289914], 
    "dimension": [598, 1108, 5000]
  }, 
  "QPL_31": {
    "name": "BEAM_M2.QWL.65043", 
    "origin": [4.15, -0.6, 10158.6], 
    "direction": [0.000237, 0.000136, 1.0], 
    "rotation": [0.0, 0.0136, -0.007774], 
    "rotation_sim": [-2e-06, 0.0136, -0.007774], 
    "dimension": [610, 1030, 2948]
  }, 
  "SCR_2": {
    "name": "BEAM_XCMV.065.050", 
    "origin": [1.9, 0.2, 16547.0], 
    "direction": [-0.00044, 4e-05, -1.0], 
    "rotation": [0.0, -0.025205, -179.997708], 
    "rotation_sim": [1e-06, 0.025205, -179.997708], 
    "dimension": [960, 760, 5000]
  }, 
  "QPL_32": {
    "name": "BEAM_M2.QWL.65056", 
    "origin": [1.35, 0.85, 22513.7], 
    "direction": [0.000373, -0.000373, 1.0], 
    "rotation": [-0.0, 0.021372, 0.021379], 
    "rotation_sim": [8e-06, 0.021372, 0.021379], 
    "dimension": [610, 1030, 2948]
  }, 
  "QPL_33A": {
    "name": "BEAM_M2.QPL.65072", 
    "origin": [-1.45, 0.6, 39017.4], 
    "direction": [5e-05, 0.0001, 1.0], 
    "rotation": [0.0, 0.002863, -0.00573], 
    "rotation_sim": [-0.0, 0.002863, -0.00573], 
    "dimension": [815, 815, 2000]
  }, 
  "QPL_33B": {
    "name": "BEAM_M2.QPL.65074", 
    "origin": [2.55, 1.0, 41517.8], 
    "direction": [-5e-05, 0.0006, 1.0], 
    "rotation": [-0.0, -0.002863, -0.034377], 
    "rotation_sim": [2e-06, -0.002863, -0.034377], 
    "dimension": [815, 815, 2000]
  }, 
  "QPL_33C": {
    "name": "BEAM_M2.QPL.65077", 
    "origin": [6.35, 0.9, 44168.1], 
    "direction": [-5e-05, 0.0, 1.0], 
    "rotation": [0.0, -0.002863, -0.0], 
    "rotation_sim": [0.0, -0.002863, 0.0], 
    "dimension": [815, 815, 2000]
  }, 
  "MBP1": {
    "name": "BEAM_M2-NA64MU.MBPH.065083", 
    "origin": [2.35, 0.1, 49088.9], 
    "direction": [0.00355, 0.0001, 0.999994], 
    "rotation": [-0.0, 0.203298, -0.00573], 
    "rotation_sim": [-2e-05, 0.203298, -0.00573], 
    "dimension": [1740, 1260, 2000]
  }, 
  "MBP2": {
    "name": "BEAM_M2-NA64MU.MBPH.065092", 
    "origin": [60.75, 0.35, 57588.45], 
    "direction": [0.01005, 5e-05, 0.999949], 
    "rotation": [-0.0, 0.575544, -0.002865], 
    "rotation_sim": [-2.9e-05, 0.575544, -0.002865], 
    "dimension": [1740, 1320, 2000]
  }, 
  "VHCAL0": {
    "origin"      : [  21.221993,  -4.997163, 51522.157907 ], 
    "direction"   : [   0.010255,  -0.004380,     0.999938 ], 
    "rotation"    : [  -0.697981,   0.667889,     0.345925 ], 
    "rotation_sim": [  -0.693984,   0.672041,     0.337786 ], 
    "dimension"   : [ 495.000000, 538.000000,   959.000000 ]
  }, 
  "ECAL": {
    "origin"      : [   5.079781,  41.912359, 53106.546845 ], 
    "direction"   : [   0.006534,  -0.001500,     0.999978 ], 
    "rotation"    : [   0.036967,   0.356014,     0.171918 ], 
    "rotation_sim": [   0.038036,   0.355901,     0.172151 ], 
    "dimension"   : [ 420.000000, 320.000000,   932.000000 ]
  }, 
  "VETO": {
    "origin"      : [  55.228897,  -9.744014, 54110.677463 ], 
    "direction"   : [  -0.018506,   0.031318,     0.999338 ], 
    "rotation"    : [  -0.248128,   0.167977,    -1.521977 ], 
    "rotation_sim": [  -0.252503,   0.161326,    -1.522696 ], 
    "dimension"   : [ 500.000000, 500.000000,    50.000000 ]
  }, 
  "VHCAL1": {
    "origin"      : [  11.331630,  17.302873, 54820.464867 ], 
    "direction"   : [   0.004827,  -0.003325,     0.999983 ], 
    "rotation"    : [   0.185012,   0.234489,     0.166068 ], 
    "rotation_sim": [   0.185693,   0.233950,     0.166825 ], 
    "dimension"   : [ 495.000000, 538.000000,   959.000000 ]
  }, 
  "HCAL0": {
    "origin"      : [   20.835386, -11.045417, 61194.714073 ], 
    "direction"   : [   -0.000523,  -0.007149,     0.999974 ], 
    "rotation"    : [    0.316111,  -0.086368,     0.470481 ], 
    "rotation_sim": [    0.315392,  -0.088960,     0.469998 ], 
    "dimension"   : [ 1200.000000, 600.000000,  1715.000000 ]
  }, 
  "HCAL1": {
    "origin"      : [   24.168838, -14.628754, 63007.135571 ], 
    "direction"   : [    0.006925,   0.006576,     0.999954 ], 
    "rotation"    : [   -0.218143,   0.383659,    -0.386254 ], 
    "rotation_sim": [   -0.220729,   0.382177,    -0.387721 ], 
    "dimension"   : [ 1200.000000, 600.000000,  1715.000000 ]
  }, 
  "V0": {
    "origin"      : [  -0.156634,  -4.850000, 46833.250044     ], 
    "direction"   : [   0.013268,  -0.000000,     0.999912     ], 
    "rotation"    : [   0.113274,   0.760213,     0.000000     ], 
    "rotation_sim": [   0.113284,   0.760212,     0.001503     ], 
    "dimension"   : [ 100.000000, 100.000000,     1.000000, 42 ]
  }, 
  "S0": {
    "origin"   : [ -3.6, 1.0, 46969.5 ], 
    "direction": [  0.0, 0.0,     1.0 ], 
    "dimension": [ 40.0, 1.5          ]
  }, 
  "S1": {
    "origin"   : [ 11.1, 1.5, 50845.5 ], 
    "direction": [  0.0, 0.0,     1.0 ], 
    "dimension": [ 40.0, 1.5          ]
  }, 
  "S2": {
    "origin"   : [ 21.9, 1.3, 52258.1 ], 
    "direction": [  0.0, 0.0,     1.0 ], 
    "dimension": [ 35.0, 1.5          ]
  }, 
  "V1": {
    "origin"      : [ -11.401904,   7.45000, 52417.650004     ], 
    "direction"   : [   0.003807,  -0.00000,     0.999993     ], 
    "rotation"    : [  -0.023029,   0.21813,     0.000000     ], 
    "rotation_sim": [  -0.023029,   0.21813,     -8.8e-05     ], 
    "dimension"   : [ 100.000000, 100.00000,     1.000000, 42 ]
  }, 
  "S4": {
    "origin"      : [ 228.241586,  -1.700000, 59981.100142 ], 
    "direction"   : [   0.033656,  -0.000000,     0.999433 ], 
    "rotation"    : [   0.579819,   1.928704,    -0.000000 ], 
    "rotation_sim": [   0.580147,   1.928606,     0.019525 ], 
    "dimension"   : [ 205.000000, 140.000000,     0.500000 ]
  }, 
  "BK": {
    "origin"      : [  44.804909, -17.450000, 60052.250012 ], 
    "direction"   : [  -0.004909,   0.000000,     0.999988 ], 
    "rotation"    : [  -0.476683,  -0.281253,    -0.000000 ], 
    "rotation_sim": [  -0.476689,  -0.281244,     0.002340 ], 
    "dimension"   : [ 160.000000, 160.000000,     2.000000 ]
  }, 
  "SMU": {
    "origin"      : [ 371.800000, -12.150962, 63895.400144 ], 
    "direction"   : [  -0.000000,   0.002852,     0.999996 ], 
    "rotation"    : [   0.730344,   0.000000,    -0.163410 ], 
    "rotation_sim": [   0.730342,   0.002083,    -0.163397 ], 
    "dimension"   : [ 300.000000, 300.000000,     0.800000 ]
  }, 
  "XCMIB.X0610061/XCMIB.X0610068": {
    "origin"      : [ -160.243220,    5.679367, 32437.555200 ], 
    "direction"   : [   -0.000534,   -0.000608,     1.000000 ], 
    "rotation"    : [   -0.233753,    0.017842,     0.051514 ], 
    "rotation_sim": [   -0.233737,    0.018052,     0.051440 ], 
    "dimension"   : [ 1600.000000, 1600.000000,  8000.000000 ]
  },
  "MM08x_beam_loc": [   6.765229,  8.115667],
  "ST03x_beam_loc": [  11.724111,  7.132017],
  "MM09x_beam_loc": [  -7.860248,  8.359438],
  "ST02x_beam_loc": [ -31.671778,  7.579453],
  "MM10x_beam_loc": [  -4.422246,  9.114952],
  "MM11x_beam_loc": [   0.522748,  9.142003],
  "ST01x_beam_loc": [  -2.287278,  8.309092],
  "MM08y_beam_loc": [ -10.259621, 10.107588],
  "ST03y_beam_loc": [   0.662448,  8.377077],
  "MM09y_beam_loc": [   0.827596,  9.708352],
  "ST02y_beam_loc": [  -4.222055,  6.348277],
  "MM10y_beam_loc": [   6.987938,  7.365323],
  "MM11y_beam_loc": [   1.588321,  6.558985],
  "ST01y_beam_loc": [  -7.503487,  5.279049],
  "GEM1x_beam_loc": [  19.227013,  7.898101],
  "GEM2x_beam_loc": [   3.461488,  8.077762],
  "GEM3x_beam_loc": [  27.307379,  8.586031],
  "GEM4x_beam_loc": [  13.680376,  8.577916],
  "MM05x_beam_loc": [ -91.453551, 10.685525],
  "MM06x_beam_loc": [-102.919498, 11.156031],
  "MM07x_beam_loc": [ -93.954157, 11.391334],
  "ST11x_beam_loc": [-252.504052, 11.038865],
  "ST12x_beam_loc": [ -66.292011, 14.592666],
  "GEM1y_beam_loc": [ -18.935987,  2.262726],
  "GEM2y_beam_loc": [ -27.819513,  4.237543],
  "GEM3y_beam_loc": [ -12.222033,  3.578997],
  "GEM4y_beam_loc": [ -13.500972,  3.346801],
  "MM05y_beam_loc": [   4.214339,  3.514955],
  "MM06y_beam_loc": [  -4.720090,  3.669366],
  "MM07y_beam_loc": [   3.315944,  3.617446],
  "ST11y_beam_loc": [  24.001327,  8.268444],
  "ST12y_beam_loc": [  49.404154, 10.872128],
  "MM08_angCorr":  0.00133756,
  "ST03_angCorr":  0.00042275,
  "MM09_angCorr": -0.00189084,
  "ST02_angCorr":  0.02686462,
  "MM10_angCorr":  0.01979314,
  "MM11_angCorr": -0.00315710,
  "ST01_angCorr":  0.02159020,
  "GEM1_angCorr": -0.00181101,
  "GEM2_angCorr":  0.00168432,
  "GEM3_angCorr":  0.00606793,
  "GEM4_angCorr": -0.00531337,
  "MM05_angCorr": -0.00222822,
  "MM06_angCorr": -0.00186640,
  "MM07_angCorr":  0.01238559,
  "ST11_angCorr":  0.01976268,
  "ST12_angCorr":  0.0
}
