{
  "// File": "2023A placements",
    "// Author": "Benjamin Banto Oberhauser",
    "// Date  ": "16.10.2023",
    "// Runs used ": "9252",
    "//": "",
    "//": "Total length of vacuum tube is 62+500+53+1080 = 1695 cm",
    "//": "",
    "//": "Magnets",
    "//": "",
    "MBPL": {
      "Mag": 1.80,
      "Dir": [0.0,-1.0,0.0],
      "BEND21U": [-500.0,-500.0,6350.0],
      "BEND21D": [ 500.0, 500.0,8350.0],
      "BEND22U": [-500.0,-500.0,9363.0],
      "BEND22D": [ 500.0, 500.0,11363.0],
      "BEND23U": [-500.0,-500.0,33851.6],
      "BEND23D": [ 500.0, 500.0,35652.7]
    },
    "TRIGGER": {
      "S0": [    5.04963, -3.41074,  3811.4],
      "V0": [    0.65   , -6.45   ,  4663.6],
      "S2": [ -296.80   , -4.25   , 22328.5],
      "V1": [ -303.95   , -9.45   , 22535.4],
      "S3": [ -346.70   , -6.25   , 24623.6]
    },
    "//": "",
    "//": "Tracking detectors",
    "//": "",
    "MM01":{
      "origin": [5.301042, -1.959462, 4378.150],
      "dimension": [81,81,0.25],
      "resolution": 0.28
    },
    "MM02":{
      "origin": [-11.062637, -15.581022, 5283.350],
      "dimension": [81,81,0.25],
      "resolution": 0.24
    },
    "MM03":{
      "origin": [-304.6950268, 5.305631, 22566.850],
      "dimension": [81,81,0.25],
      "resolution": 0.11
    },
    "MM04":{
      "origin": [-360.87334, -20.556789, 24456.225],
      "dimension": [81,81,0.25],
      "resolution": 0.11
    },
    "MM05":{
      "origin": [-464.775, -25.875, 31106.817],
      "dimension": [81,81,0.25],
      "resolution": 0.08
    },
    "MM06":{
      "origin": [-626.350, -16.350, 36552.725],
      "dimension": [81,81,0.25],
      "resolution": 0.08
    },
    "MM07":{
      "origin": [-651.150, 0.750, 37595.150],
      "dimension": [81,81,0.25],
      "resolution": 0.08
    },
    "GM01":{
      "origin": [-272.88853,  -7.7651318,  22909.000],
      "dimension": [150,150,0.25],
      "resolution": 0.092
    },
    "GM02":{
      "origin": [-358.87469,  10.6653010,  24327.275],
      "dimension": [150,150,0.25],
      "resolution": 0.091
    },
    "ST01":{
      "origin": [-0.273291, -6.65347464,  4057.125],
      "dimension": [192,192,6],
      "resolution": 0.47
    },
    "ST02":{
      "origin": [1.81544,  -5.735686,  5562.700],
      "dimension": [192,192,6],
      "resolution": 0.4
    },
    "ST03":{
      "origin": [-323.10171, 7.90492, 22786.500],
      "dimension": [192,192,6],
      "resolution": 0.5
    },
    "ST04":{
      "origin": [-339.559048, -19.63489, 24856.800],
      "dimension": [192,192,6],
      "resolution": 0.35
    },
    "ST05":{
      "origin": [ -483.175, -12.675, 32879.475],
      "dimension": [192,192,6],
      "resolution": 0.6
    },
    "ST06":{
      "origin": [ -489.900,  11.725, 33131.750],
      "dimension": [192,192,6],
      "resolution": 0.6
    },
    "ST11":{
      "origin": [ -579.500, 11.000, 41574.40],
      "dimension": [960,960,6],
      "resolution": 0.6
    },
    "ST12":{
      "origin": [ -766.20, 4.000, 44961.50],
      "dimension": [960,960,6],
      "resolution": 0.6
    }
}
